…
city_or
```

    ## # A tibble: 47 × 6
    ## # Groups:   city_state [47]
    ##    city_state      term              OR lower upper   p.value
    ##    <chr>           <chr>          <dbl> <dbl> <dbl>     <dbl>
    ##  1 Albuquerque, NM victim_sexMale 1.77  0.825 3.76  1.39 e- 1
    ##  2 Atlanta, GA     victim_sexMale 1.00  0.680 1.46  1.000e+ 0
    ##  3 Baltimore, MD   victim_sexMale 0.426 0.324 0.558 6.26 e-10
    ##  4 Baton Rouge, LA victim_sexMale 0.381 0.204 0.684 1.65 e- 3
    ##  5 Birmingham, AL  victim_sexMale 0.870 0.571 1.31  5.11 e- 1
    ##  6 Boston, MA      victim_sexMale 0.674 0.353 1.28  2.26 e- 1
    ##  7 Buffalo, NY     victim_sexMale 0.521 0.288 0.936 2.90 e- 2
    ##  8 Charlotte, NC   victim_sexMale 0.884 0.551 1.39  6.00 e- 1
    ##  9 Chicago, IL     victim_sexMale 0.410 0.336 0.501 1.86 e-18
    ## 10 Cincinnati, OH  victim_sexMale 0.400 0.231 0.667 6.49 e- 4
    ## # ℹ 37 more rows
…
